How do upsets in the 2021 NCAA Men's Basketball Tournament compare to the rest of March Madness History? - Paul Heires' Github Site
…
I’m going to combine all 6 rounds into one collective dataframe.

AllUpsets <- do.call("rbind", list(FirstRoundUpsets, SecondRoundUpsets, SweetSixteenUpsets, EliteEightUpsets, FinalFourUpsets, NationalChampionshipUpsets))

After we’ve got all the upsets put together into one dataframe called “AllUpsets”, let’s group them by year and see how many games come up for each tournament.

TotalUpsets <- AllUpsets %>% 
  group_by(Year) %>%
  summarise(
    total = n()) %>%
  arrange(desc(total))
TotalUpsets

## # A tibble: 36 x 2
##     Year total
##    <dbl> <int>
##  1  1999    23
##  2  2014    22
##  3  2001    21
##  4  2003    21
##  5  2006    21
##  6  1989    20
##  7  1990    20
##  8  2010    20
##  9  2011    20
## 10  2013    20
## # … with 26 more rows
…
